﻿<?xml version="1.0" encoding="utf-8"?>
<?AutomationStudio Version="4.9.2.46"?>
<Objects>
  <Object
    Path="C:\projects\BRUSvfdwork\Logical\Package.pkg"
    LogicalPath=""
    Type="Package.ParentUnknown"
    LastWriteTime="132736861893378522" />
  <Object
    Path="C:\projects\BRUSvfdwork\Logical\Global.typ"
    LogicalPath="Global.typ"
    Type="File"
    LastWriteTime="132736146818507098"
    Private="false" />
  <Object
    Path="C:\projects\BRUSvfdwork\Logical\Global.var"
    LogicalPath="Global.var"
    Type="File"
    LastWriteTime="132736146818642951"
    Private="false" />
  <Object
    Path="C:\projects\BRUSvfdwork\Logical\Libraries\Package.pkg"
    LogicalPath="Libraries"
    Type="Package"
    LastWriteTime="132736861829450144" />
  <Object
    Path="C:\projects\BRUSvfdwork\Logical\Libraries\operator\binary.lby"
    LogicalPath="Libraries.operator"
    Type="Library"
    LastWriteTime="132736146824098177" />
  <Object
    Path="C:\projects\BRUSvfdwork\Logical\Libraries\operator\operator.fun"
    LogicalPath="Libraries.operator.operator.fun"
    Type="File"
    LastWriteTime="132736146823935089"
    Private="false" />
  <Object
    Path="C:\projects\BRUSvfdwork\Logical\Libraries\operator\operator.typ"
    LogicalPath="Libraries.operator.operator.typ"
    Type="File"
    LastWriteTime="132736146824098177"
    Private="false" />
  <Object
    Path="C:\projects\BRUSvfdwork\Logical\Libraries\operator\operator.var"
    LogicalPath="Libraries.operator.operator.var"
    Type="File"
    LastWriteTime="132736146824098177"
    Private="false" />
  <Object
    Path="C:\projects\BRUSvfdwork\Logical\Libraries\runtime\binary.lby"
    LogicalPath="Libraries.runtime"
    Type="Library"
    LastWriteTime="132736146826130279" />
  <Object
    Path="C:\projects\BRUSvfdwork\Logical\Libraries\runtime\runtime.fun"
    LogicalPath="Libraries.runtime.runtime.fun"
    Type="File"
    LastWriteTime="132736146826130279"
    Private="false" />
  <Object
    Path="C:\projects\BRUSvfdwork\Logical\Libraries\runtime\runtime.typ"
    LogicalPath="Libraries.runtime.runtime.typ"
    Type="File"
    LastWriteTime="132736146826130279"
    Private="false" />
  <Object
    Path="C:\projects\BRUSvfdwork\Logical\Libraries\runtime\runtime.var"
    LogicalPath="Libraries.runtime.runtime.var"
    Type="File"
    LastWriteTime="132736146826130279"
    Private="false" />
  <Object
    Path="C:\projects\BRUSvfdwork\Logical\Libraries\AsEPL\binary.lby"
    LogicalPath="Libraries.AsEPL"
    Type="Library"
    LastWriteTime="132736829011433472" />
  <Object
    Path="C:\projects\BRUSvfdwork\Logical\Libraries\AsEPL\AsEPL.fun"
    LogicalPath="Libraries.AsEPL.AsEPL.fun"
    Type="File"
    LastWriteTime="132736829011433472"
    Private="false" />
  <Object
    Path="C:\projects\BRUSvfdwork\Logical\Libraries\AsEPL\AsEPL.typ"
    LogicalPath="Libraries.AsEPL.AsEPL.typ"
    Type="File"
    LastWriteTime="132736829011433472"
    Private="false" />
  <Object
    Path="C:\projects\BRUSvfdwork\Logical\Libraries\AsEPL\AsEPL.var"
    LogicalPath="Libraries.AsEPL.AsEPL.var"
    Type="File"
    LastWriteTime="132736829011433472"
    Private="false" />
  <Object
    Path="C:\projects\BRUSvfdwork\Logical\Libraries\astime\binary.lby"
    LogicalPath="Libraries.astime"
    Type="Library"
    LastWriteTime="132736146828271865" />
  <Object
    Path="C:\projects\BRUSvfdwork\Logical\Libraries\astime\astime.fun"
    LogicalPath="Libraries.astime.astime.fun"
    Type="File"
    LastWriteTime="132736146828166518"
    Private="false" />
  <Object
    Path="C:\projects\BRUSvfdwork\Logical\Libraries\astime\astime.typ"
    LogicalPath="Libraries.astime.astime.typ"
    Type="File"
    LastWriteTime="132736146828254589"
    Private="false" />
  <Object
    Path="C:\projects\BRUSvfdwork\Logical\Libraries\astime\astime.var"
    LogicalPath="Libraries.astime.astime.var"
    Type="File"
    LastWriteTime="132736146828271865"
    Private="false" />
  <Object
    Path="C:\projects\BRUSvfdwork\Logical\Libraries\AsIecCon\binary.lby"
    LogicalPath="Libraries.AsIecCon"
    Type="Library"
    LastWriteTime="132736146830485439" />
  <Object
    Path="C:\projects\BRUSvfdwork\Logical\Libraries\AsIecCon\AsIecCon.fun"
    LogicalPath="Libraries.AsIecCon.AsIecCon.fun"
    Type="File"
    LastWriteTime="132736146830380598"
    Private="false" />
  <Object
    Path="C:\projects\BRUSvfdwork\Logical\Libraries\AsIecCon\AsIecCon.typ"
    LogicalPath="Libraries.AsIecCon.AsIecCon.typ"
    Type="File"
    LastWriteTime="132736146830460449"
    Private="false" />
  <Object
    Path="C:\projects\BRUSvfdwork\Logical\Libraries\AsIecCon\AsIecCon.var"
    LogicalPath="Libraries.AsIecCon.AsIecCon.var"
    Type="File"
    LastWriteTime="132736146830460449"
    Private="false" />
  <Object
    Path="C:\projects\BRUSvfdwork\Logical\Lib\Package.pkg"
    LogicalPath="Lib"
    Type="Package"
    LastWriteTime="132736861829732280" />
  <Object
    Path="C:\projects\BRUSvfdwork\Logical\Lib\BRUSvfd\IEC.lby"
    LogicalPath="Lib.BRUSvfd"
    Type="Library"
    LastWriteTime="132736861829702498" />
  <Object
    Path="C:\projects\BRUSvfdwork\Logical\Lib\BRUSvfd\Types.typ"
    LogicalPath="Lib.BRUSvfd.Types.typ"
    Type="File"
    LastWriteTime="132736870116786601"
    Private="false" />
  <Object
    Path="C:\projects\BRUSvfdwork\Logical\Lib\BRUSvfd\BRUSvfd.fun"
    LogicalPath="Lib.BRUSvfd.BRUSvfd.fun"
    Type="File"
    LastWriteTime="132737067761691893"
    Private="false" />
  <Object
    Path="C:\projects\BRUSvfdwork\Logical\Lib\BRUSvfd\Fun.st"
    LogicalPath="Lib.BRUSvfd.Fun.st"
    Type="File"
    LastWriteTime="132737067763408170"
    Private="false" />
  <Object
    Path="C:\projects\BRUSvfdwork\Logical\Examples\Package.pkg"
    LogicalPath="Examples"
    Type="Package"
    LastWriteTime="132736169293733490" />
  <Object
    Path="C:\projects\BRUSvfdwork\Logical\Examples\EX_VFD_ParRW\IEC.prg"
    LogicalPath="Examples.EX_VFD_ParRW"
    Type="Program"
    LastWriteTime="132736968263380433" />
  <Object
    Path="C:\projects\BRUSvfdwork\Logical\Examples\EX_VFD_ParRW\Cyclic.st"
    LogicalPath="Examples.EX_VFD_ParRW.Cyclic.st"
    Type="File"
    LastWriteTime="132737068025848688"
    Private="false" />
  <Object
    Path="C:\projects\BRUSvfdwork\Logical\Examples\EX_VFD_ParRW\Types.typ"
    LogicalPath="Examples.EX_VFD_ParRW.Types.typ"
    Type="File"
    LastWriteTime="132736155421565792"
    Private="true" />
  <Object
    Path="C:\projects\BRUSvfdwork\Logical\Examples\EX_VFD_ParRW\Variables.var"
    LogicalPath="Examples.EX_VFD_ParRW.Variables.var"
    Type="File"
    LastWriteTime="132736969828678978"
    Private="true" />
  <Object
    Path="C:\projects\BRUSvfdwork\Physical\Config1\Config.pkg"
    LogicalPath="Config1"
    Type="Configuration.ParentUnknown"
    LastWriteTime="132736158154002575" />
  <Object
    Path="C:\projects\BRUSvfdwork\Physical\Config1\Hardware.hw"
    LogicalPath="Config1.Hardware.hw"
    Type="File"
    LastWriteTime="132737031580613606"
    Private="false" />
  <Object
    Path="C:\projects\BRUSvfdwork\Physical\Config1\Hardware.hwl"
    LogicalPath="Config1.Hardware.hwl"
    Type="File"
    LastWriteTime="132736167844000718"
    Private="false" />
  <Object
    Path="C:\projects\BRUSvfdwork\Physical\Config1\X20CP1584\Cpu.pkg"
    LogicalPath="Config1.X20CP1584"
    Type="Cpu"
    LastWriteTime="132736158154051871" />
  <Object
    Path="C:\projects\BRUSvfdwork\Physical\Config1\X20CP1584\Cpu.sw"
    LogicalPath="Config1.X20CP1584.Cpu.sw"
    Type="File"
    LastWriteTime="132736861893711829"
    Private="false" />
  <Object
    Path="C:\projects\BRUSvfdwork\Physical\Config1\X20CP1584\Cpu.per"
    LogicalPath="Config1.X20CP1584.Cpu.per"
    Type="File"
    LastWriteTime="132736146831844319"
    Private="false" />
  <Object
    Path="C:\projects\BRUSvfdwork\Physical\Config1\X20CP1584\IoMap.iom"
    LogicalPath="Config1.X20CP1584.IoMap.iom"
    Type="File"
    LastWriteTime="132736146831923626"
    Private="false" />
  <Object
    Path="C:\projects\BRUSvfdwork\Physical\Config1\X20CP1584\PvMap.vvm"
    LogicalPath="Config1.X20CP1584.PvMap.vvm"
    Type="File"
    LastWriteTime="132736146831923626"
    Private="false" />
  <Object
    Path="C:\projects\BRUSvfdwork\Physical\Config1\X20CP1584\Connectivity\Package.pkg"
    LogicalPath="Config1.X20CP1584.Connectivity"
    Type="Package"
    LastWriteTime="132736146832086145" />
  <Object
    Path="C:\projects\BRUSvfdwork\Physical\Config1\X20CP1584\Connectivity\OpcUA\Package.pkg"
    LogicalPath="Config1.X20CP1584.Connectivity.OpcUA"
    Type="Package"
    LastWriteTime="132736146832086145" />
  <Object
    Path="C:\projects\BRUSvfdwork\Physical\Config1\X20CP1584\TextSystem\Package.pkg"
    LogicalPath="Config1.X20CP1584.TextSystem"
    Type="Package"
    LastWriteTime="132736146832166211" />
  <Object
    Path="C:\projects\BRUSvfdwork\Physical\Config1\X20CP1584\UnitSystem\Package.pkg"
    LogicalPath="Config1.X20CP1584.UnitSystem"
    Type="Package"
    LastWriteTime="132736146832166211" />
  <Object
    Path="C:\projects\BRUSvfdwork\Physical\Config1\X20CP1584\AccessAndSecurity\Package.pkg"
    LogicalPath="Config1.X20CP1584.AccessAndSecurity"
    Type="Package"
    LastWriteTime="132736146832740314" />
  <Object
    Path="C:\projects\BRUSvfdwork\Physical\Config1\X20CP1584\AccessAndSecurity\UserRoleSystem\Package.pkg"
    LogicalPath="Config1.X20CP1584.AccessAndSecurity.UserRoleSystem"
    Type="Package"
    LastWriteTime="132736146832328238" />
  <Object
    Path="C:\projects\BRUSvfdwork\Physical\Config1\X20CP1584\AccessAndSecurity\UserRoleSystem\Role.role"
    LogicalPath="Config1.X20CP1584.AccessAndSecurity.UserRoleSystem.Role.role"
    Type="File"
    LastWriteTime="132736146832328238"
    Private="false" />
  <Object
    Path="C:\projects\BRUSvfdwork\Physical\Config1\X20CP1584\AccessAndSecurity\UserRoleSystem\User.user"
    LogicalPath="Config1.X20CP1584.AccessAndSecurity.UserRoleSystem.User.user"
    Type="File"
    LastWriteTime="132736146832328238"
    Private="false" />
  <Object
    Path="C:\projects\BRUSvfdwork\Physical\Config1\X20CP1584\AccessAndSecurity\CertificateStore\Package.pkg"
    LogicalPath="Config1.X20CP1584.AccessAndSecurity.CertificateStore"
    Type="Package"
    LastWriteTime="132736146832617539" />
  <Object
    Path="C:\projects\BRUSvfdwork\Physical\Config1\X20CP1584\AccessAndSecurity\CertificateStore\OwnCertificates\Package.pkg"
    LogicalPath="Config1.X20CP1584.AccessAndSecurity.CertificateStore.OwnCertificates"
    Type="Package"
    LastWriteTime="132736146832449666" />
  <Object
    Path="C:\projects\BRUSvfdwork\Physical\Config1\X20CP1584\AccessAndSecurity\CertificateStore\OwnCertificates\Certificates\Package.pkg"
    LogicalPath="Config1.X20CP1584.AccessAndSecurity.CertificateStore.OwnCertificates.Certificates"
    Type="Package"
    LastWriteTime="132736146832449666" />
  <Object
    Path="C:\projects\BRUSvfdwork\Physical\Config1\X20CP1584\AccessAndSecurity\CertificateStore\OwnCertificates\PrivateKeys\Package.pkg"
    LogicalPath="Config1.X20CP1584.AccessAndSecurity.CertificateStore.OwnCertificates.PrivateKeys"
    Type="Package"
    LastWriteTime="132736146832449666" />
  <Object
    Path="C:\projects\BRUSvfdwork\Physical\Config1\X20CP1584\AccessAndSecurity\CertificateStore\ThirdPartyCertificates\Package.pkg"
    LogicalPath="Config1.X20CP1584.AccessAndSecurity.CertificateStore.ThirdPartyCertificates"
    Type="Package"
    LastWriteTime="132736146832526978" />
  <Object
    Path="C:\projects\BRUSvfdwork\Physical\Config1\X20CP1584\AccessAndSecurity\CertificateStore\ThirdPartyCertificates\SoftwareCertificates\Package.pkg"
    LogicalPath="Config1.X20CP1584.AccessAndSecurity.CertificateStore.ThirdPartyCertificates.SoftwareCertificates"
    Type="Package"
    LastWriteTime="132736146832526978" />
  <Object
    Path="C:\projects\BRUSvfdwork\Physical\Config1\X20CP1584\AccessAndSecurity\CertificateStore\CertificateRevocationLists\Package.pkg"
    LogicalPath="Config1.X20CP1584.AccessAndSecurity.CertificateStore.CertificateRevocationLists"
    Type="Package"
    LastWriteTime="132736146832617539" />
  <Object
    Path="C:\projects\BRUSvfdwork\Physical\Config1\X20CP1584\AccessAndSecurity\CertificateStore\CertificateSigningRequests\Package.pkg"
    LogicalPath="Config1.X20CP1584.AccessAndSecurity.CertificateStore.CertificateSigningRequests"
    Type="Package"
    LastWriteTime="132736146832617539" />
  <Object
    Path="C:\projects\BRUSvfdwork\Physical\Config1\X20CP1584\AccessAndSecurity\TransportLayerSecurity\Package.pkg"
    LogicalPath="Config1.X20CP1584.AccessAndSecurity.TransportLayerSecurity"
    Type="Package"
    LastWriteTime="132736146832617539" />
  <Object
    Path="C:\projects\BRUSvfdwork\Physical\Config1\X20CP1584\AccessAndSecurity\Firewall\Package.pkg"
    LogicalPath="Config1.X20CP1584.AccessAndSecurity.Firewall"
    Type="Package"
    LastWriteTime="132736146832740314" />
  <Object
    Path="C:\projects\BRUSvfdwork\Physical\Config1\X20CP1584\AccessAndSecurity\Firewall\Rules.firewallRules"
    LogicalPath="Config1.X20CP1584.AccessAndSecurity.Firewall.Rules.firewallRules"
    Type="File"
    LastWriteTime="132736146832740314"
    Private="false" />
  <Object
    Path="C:\projects\BRUSvfdwork\Physical\Config1\X20CP1584\mappControl\Package.pkg"
    LogicalPath="Config1.X20CP1584.mappControl"
    Type="Package"
    LastWriteTime="132736146832740314" />
  <Object
    Path="C:\projects\BRUSvfdwork\Physical\Config1\X20CP1584\mappMotion\Package.pkg"
    LogicalPath="Config1.X20CP1584.mappMotion"
    Type="Package"
    LastWriteTime="132736146832820767" />
  <Object
    Path="C:\projects\BRUSvfdwork\Physical\Config1\X20CP1584\mappServices\Package.pkg"
    LogicalPath="Config1.X20CP1584.mappServices"
    Type="Package"
    LastWriteTime="132736146832820767" />
  <Object
    Path="C:\projects\BRUSvfdwork\Physical\Config1\X20CP1584\mappSafety\Package.pkg"
    LogicalPath="Config1.X20CP1584.mappSafety"
    Type="Package"
    LastWriteTime="132736146832965095" />
  <Object
    Path="C:\projects\BRUSvfdwork\Physical\Config1\X20CP1584\mappSafety\SafeApplication\Package.pkg"
    LogicalPath="Config1.X20CP1584.mappSafety.SafeApplication"
    Type="Package"
    LastWriteTime="132736146832881648" />
  <Object
    Path="C:\projects\BRUSvfdwork\Physical\Config1\X20CP1584\mappSafety\SafeCommissioning\Package.pkg"
    LogicalPath="Config1.X20CP1584.mappSafety.SafeCommissioning"
    Type="Package"
    LastWriteTime="132736146832965095" />
  <Object
    Path="C:\projects\BRUSvfdwork\Physical\Config1\X20CP1584\mappView\Package.pkg"
    LogicalPath="Config1.X20CP1584.mappView"
    Type="Package"
    LastWriteTime="132736146832984305" />
  <Object
    Path="C:\projects\BRUSvfdwork\Physical\Config1\X20CP1584\mappVision\Package.pkg"
    LogicalPath="Config1.X20CP1584.mappVision"
    Type="Package"
    LastWriteTime="132736146832984305" />
  <Object
    Path="C:\projects\BRUSvfdwork\Physical\Config1\X20CP1584\mappCockpit\Package.pkg"
    LogicalPath="Config1.X20CP1584.mappCockpit"
    Type="Package"
    LastWriteTime="132736146833065912" />
  <Object
    Path="C:\projects\BRUSvfdwork\Physical\Config1\Hardware.jpg"
    LogicalPath="Config1.Hardware.jpg"
    Type="File"
    LastWriteTime="132736167845200695"
    Private="false" />
</Objects>