C:\projects\BRUSvfdwork\Logical\Global.typ
C:\projects\BRUSvfdwork\Logical\Global.var
C:\projects\BRUSvfdwork\Logical\Libraries\operator\operator.fun
C:\projects\BRUSvfdwork\Logical\Libraries\operator\operator.typ
C:\projects\BRUSvfdwork\Logical\Libraries\operator\operator.var
C:\projects\BRUSvfdwork\Logical\Libraries\runtime\runtime.fun
C:\projects\BRUSvfdwork\Logical\Libraries\runtime\runtime.typ
C:\projects\BRUSvfdwork\Logical\Libraries\runtime\runtime.var
C:\projects\BRUSvfdwork\Logical\Libraries\AsEPL\AsEPL.fun
C:\projects\BRUSvfdwork\Logical\Libraries\AsEPL\AsEPL.typ
C:\projects\BRUSvfdwork\Logical\Libraries\AsEPL\AsEPL.var
C:\projects\BRUSvfdwork\Logical\Libraries\astime\astime.fun
C:\projects\BRUSvfdwork\Logical\Libraries\astime\astime.typ
C:\projects\BRUSvfdwork\Logical\Libraries\astime\astime.var
C:\projects\BRUSvfdwork\Logical\Libraries\AsIecCon\AsIecCon.fun
C:\projects\BRUSvfdwork\Logical\Libraries\AsIecCon\AsIecCon.typ
C:\projects\BRUSvfdwork\Logical\Libraries\AsIecCon\AsIecCon.var
C:\projects\BRUSvfdwork\Logical\Lib\BRUSvfd\Types.typ
C:\projects\BRUSvfdwork\Logical\Lib\BRUSvfd\BRUSvfd.fun
